INDEX VERSION 1.131+C:\HMS_UseCase_2.2\.metadata\.plugins\org.eclipse.jdt.core
2147127533.index
275070803.index
1766923698.index
3139508341.index
1006073719.index
3193329670.index
2161071710.index
1862477865.index
2919517885.index
1463394554.index
782149115.index
623524548.index
3567606931.index
4117198792.index
4154037394.index
3410478540.index
2558565398.index
1316837105.index
913849270.index
3786216617.index
1238106880.index
1782084646.index
82811641.index
60263791.index
2680041237.index
4110893530.index
1441019511.index
469462239.index
1549796216.index
2878729617.index
2156707894.index
1221906416.index
2706000178.index
299160559.index
2128105731.index
3697626104.index
